<?xml version="1.0" encoding="utf-8"?>
<!-- Generator: Adobe Illustrator 22.1.0, SVG Export Plug-In . SVG Version: 6.00 Build 0)  -->
<svg version="1.1" id="Layer_1" xmlns="http://www.w3.org/2000/svg" xmlns:xlink="http://www.w3.org/1999/xlink" x="0px" y="0px"
	 viewBox="0 0 50 50" style="enable-background:new 0 0 50 50;" xml:space="preserve">
<style type="text/css">
	.st0{fill:#FFFFFF;}
</style>
<circle id="circle6_3_" class="st0" cx="17.8" cy="15.9" r="2.7"/>
<path class="st0" d="M48.7,18.4c0-1.4-1.2-2.6-2.6-2.6H43l-2.3-5.9c-0.6-1.5-2.2-3-3.8-3.4c0,0-3.9-1.1-11.9-1.1S13.1,6.5,13.1,6.5
	c-1.5,0.4-3.2,2-3.8,3.4L7,15.8H3.9c-1.4,0-2.6,1.2-2.6,2.6c0,1.4,1.2,2.6,2.6,2.6H5l-0.8,2.1c-0.6,1.5-1,3.9-1,5.5v12.3
	c0,1.8,1.5,3.3,3.3,3.3s3.3-1.5,3.3-3.3V39h30.3v1.9c0,1.8,1.5,3.3,3.3,3.3c1.8,0,3.3-1.5,3.3-3.3V28.6c0-1.6-0.5-4-1-5.5L44.9,21
	H46C47.5,21,48.7,19.9,48.7,18.4z M9.6,31C8.2,31,7,29.8,7,28.4c0-1.4,1.2-2.6,2.6-2.6c1.4,0,2.6,1.2,2.6,2.6
	C12.2,29.8,11.1,31,9.6,31z M26.4,20.1h-3.6h0c-0.4-0.9-1.7-1.3-2.9-1.4c-0.1,0.9-2,0.8-2,0.8s-1.9,0-2-0.8
	c-1.1,0.2-2.4,0.6-2.9,1.4h-2.6c-0.6,0-0.9-0.4-0.7-0.9l2.7-7.2c0.2-0.5,0.8-0.9,1.3-0.9h22.7c0.5,0,1.1,0.4,1.3,0.9l2.7,7.2
	c0.2,0.5-0.1,0.9-0.6,0.9h-3.6H26.4z M40.4,31c-1.4,0-2.6-1.2-2.6-2.6c0-1.4,1.2-2.6,2.6-2.6c1.4,0,2.6,1.2,2.6,2.6
	C43,29.8,41.8,31,40.4,31z"/>
</svg>
