<?xml version="1.0" encoding="utf-8"?>
<!-- Generator: Adobe Illustrator 19.2.1, SVG Export Plug-In . SVG Version: 6.00 Build 0)  -->
<svg version="1.1" id="Layer_1" xmlns="http://www.w3.org/2000/svg" xmlns:xlink="http://www.w3.org/1999/xlink" x="0px" y="0px"
	 viewBox="0 0 50 50" style="enable-background:new 0 0 50 50;" xml:space="preserve">
<style type="text/css">
	.st0{fill:#1D1D1B;}
	.st1{fill:#FFFFFF;}
</style>
<path class="st0" d="M41.6,13.2H8.5c-0.6,0-1-0.4-1-1v-0.7c0-0.6,0.4-1,1-1l33.1,0c0.6,0,1,0.4,1,1v0.7
	C42.6,12.8,42.1,13.2,41.6,13.2z"/>
<g>
	<circle class="st0" cx="25" cy="12.2" r="5.4"/>
</g>
<g>
	<polygon class="st0" points="10.3,15.7 10.3,15.7 10.3,15.7 	"/>
	<path class="st0" d="M10.3,15.7L10.3,15.7L10.3,15.7z M10.3,15.7L10.3,15.7L10.3,15.7L10.3,15.7L10.3,15.7z"/>
</g>
<g>
	<path class="st0" d="M10.3,42.8c-2.6,0-4.7-0.7-6.1-2.2C2.4,38.7,2.1,36.1,2,35h16.5c-0.1,1.1-0.4,3.7-2.2,5.6
		C14.9,42.1,12.9,42.8,10.3,42.8z"/>
	<path class="st0" d="M18,35.5c-0.1,1.2-0.6,3.2-2,4.7c-1.3,1.4-3.2,2.1-5.7,2.1c-2.5,0-4.4-0.7-5.7-2.1c-1.5-1.5-1.9-3.5-2-4.7H18
		 M19.1,34.5h-0.6H2.2H1.5c0,0-0.4,8.8,8.8,8.8S19.1,34.5,19.1,34.5L19.1,34.5z"/>
</g>
<g>
	<polygon class="st0" points="2.3,34 10.3,17.9 18.3,34 	"/>
	<path class="st0" d="M10.3,19l7.2,14.5H3.1L10.3,19 M10.3,16.8L1.5,34.5h17.6L10.3,16.8L10.3,16.8z"/>
</g>
<g>
	<polygon class="st1" points="10.3,22.3 4.2,34.5 16.4,34.5 	"/>
</g>
<g>
	<polygon class="st0" points="39.8,15.7 39.8,15.7 39.8,15.7 	"/>
	<path class="st0" d="M39.8,15.7L39.8,15.7L39.8,15.7z M39.8,15.7L39.8,15.7L39.8,15.7L39.8,15.7L39.8,15.7z"/>
</g>
<g>
	<path class="st0" d="M39.8,42.8c-2.6,0-4.7-0.7-6.1-2.2c-1.8-1.9-2.1-4.5-2.2-5.6h16.5c-0.1,1.1-0.4,3.7-2.2,5.6
		C44.4,42.1,42.4,42.8,39.8,42.8z"/>
	<path class="st0" d="M47.5,35.5c-0.1,1.2-0.6,3.2-2,4.7c-1.3,1.4-3.2,2.1-5.7,2.1c-2.5,0-4.4-0.7-5.7-2.1c-1.5-1.5-1.9-3.5-2-4.7
		H47.5 M48.6,34.5H48H31.8H31c0,0-0.4,8.8,8.8,8.8S48.6,34.5,48.6,34.5L48.6,34.5z"/>
</g>
<g>
	<polygon class="st0" points="31.8,34 39.8,17.9 47.8,34 	"/>
	<path class="st0" d="M39.8,19L47,33.5H32.6L39.8,19 M39.8,16.8L31,34.5h17.6L39.8,16.8L39.8,16.8z"/>
</g>
<g>
	<polygon class="st1" points="39.8,22.3 33.7,34.5 45.9,34.5 	"/>
</g>
</svg>
