<?xml version="1.0" encoding="utf-8"?>
<!-- Generator: Adobe Illustrator 19.2.1, SVG Export Plug-In . SVG Version: 6.00 Build 0)  -->
<svg version="1.1" id="Layer_1" xmlns="http://www.w3.org/2000/svg" xmlns:xlink="http://www.w3.org/1999/xlink" x="0px" y="0px"
	 viewBox="0 0 50 50" style="enable-background:new 0 0 50 50;" xml:space="preserve">
<style type="text/css">
	.st0{fill:#FFFFFF;}
</style>
<path class="st0" d="M41.9,17L41.9,17c0.5,0,0.8-1.9,0.8-2.9c0-3-2.4-5.5-5.4-5.5c-1.3,0-2.4,0.4-3.3,1.1l-0.1,0.2
	c-0.4-4.5-4.2-8.1-8.8-8.1c-3,0-5.6,1.5-7.2,3.7c-0.8-0.3-1.6-0.4-2.5-0.4c-3,0-5.9,1.7-7.3,4.3c-0.6,1.1-1,2.3-1,3.6
	c0,1.4,0.4,2.6,0.9,3.9c-2.2,0.6-3.8,2.5-3.8,4.9C3.9,24.7,6.2,27,9,27h32.9c2.8,0,5.1-2.2,5.1-5C47,19.2,44.7,17,41.9,17z"/>
<circle class="st0" cx="14.8" cy="33.4" r="1.8"/>
<circle class="st0" cx="21.5" cy="33.4" r="1.8"/>
<circle class="st0" cx="28.5" cy="33.4" r="1.8"/>
<circle class="st0" cx="18.4" cy="39.2" r="1.8"/>
<circle class="st0" cx="25" cy="39.2" r="1.8"/>
<circle class="st0" cx="32" cy="39.2" r="1.8"/>
<circle class="st0" cx="35" cy="33.4" r="1.8"/>
<circle class="st0" cx="14.8" cy="45.1" r="1.8"/>
<circle class="st0" cx="21.5" cy="45.1" r="1.8"/>
<circle class="st0" cx="28.5" cy="45.1" r="1.8"/>
<circle class="st0" cx="35" cy="45.1" r="1.8"/>
</svg>
