<?xml version="1.0" encoding="utf-8"?>
<!-- Generator: Adobe Illustrator 19.2.1, SVG Export Plug-In . SVG Version: 6.00 Build 0)  -->
<svg version="1.1" id="Layer_1" xmlns="http://www.w3.org/2000/svg" xmlns:xlink="http://www.w3.org/1999/xlink" x="0px" y="0px"
	 viewBox="0 0 50 50" style="enable-background:new 0 0 50 50;" xml:space="preserve">
<style type="text/css">
	.st0{fill:#FFFFFF;}
</style>
<g>
	<path class="st0" d="M34,21.9H2.9c-0.6,0-1.1-0.5-1.1-1.1c0-0.6,0.5-1.1,1.1-1.1H34c1.2,0,2.2-1,2.2-2.2c0-1.2-1-2.2-2.2-2.2
		c-1.2,0-2.2,1-2.2,2.2c0,0.6-0.5,1.1-1.1,1.1c-0.6,0-1.1-0.5-1.1-1.1c0-2.5,2-4.5,4.5-4.5s4.5,2,4.5,4.5S36.5,21.9,34,21.9z"/>
	<path class="st0" d="M44,33.6c-2.5,0-4.5-2-4.5-4.5c0-0.6,0.5-1.1,1.1-1.1s1.1,0.5,1.1,1.1c0,1.2,1,2.2,2.2,2.2s2.2-1,2.2-2.2
		c0-1.2-1-2.2-2.2-2.2H12.9c-0.6,0-1.1-0.5-1.1-1.1c0-0.6,0.5-1.1,1.1-1.1H44c2.5,0,4.5,2,4.5,4.5S46.5,33.6,44,33.6z"/>
	<path class="st0" d="M22.8,38.6c-2.5,0-4.5-2-4.5-4.5c0-0.6,0.5-1.1,1.1-1.1c0.6,0,1.1,0.5,1.1,1.1c0,1.2,1,2.2,2.2,2.2
		c1.2,0,2.2-1,2.2-2.2c0-1.2-1-2.2-2.2-2.2H3c-0.6,0-1.1-0.5-1.1-1.1c0-0.6,0.5-1.1,1.1-1.1h19.9c2.5,0,4.5,2,4.5,4.5
		S25.3,38.6,22.8,38.6z"/>
</g>
</svg>
